…
Jill used a total of 10 sites and recorded fish on transects at two
depths at each site: 3 m and 15 m. Each site was visited 3 or 4 times
over the season. Current speed was measured at each site over the course
of one month and the analyses use the mean daily max current measures.
Site will be included as a random effect in models. Abiotic factors are
current speed, depth, rock cover.

## Data summaries

    ## # A tibble: 69 x 18
    ##    Site     CurrentMax CurrentMean.x Hi_Lo TransectDepth CurrDepth Replicate
    ##    <chr>         <dbl>         <dbl> <chr>         <dbl> <chr>         <dbl>
    ##  1 Porlier        117.          64.0 High              3 High 3m           1
    ##  2 Porlier        117.          64.0 High              3 High 3m           2
    ##  3 Porlier        117.          64.0 High              3 High 3m           3
    ##  4 Porlier        117.          64.0 High             15 High 15m          1
    ##  5 Porlier        117.          64.0 High             15 High 15m          2
    ##  6 Porlier        117.          64.0 High             15 High 15m          3
    ##  7 Grainger       114.          19.6 High              3 High 3m           1
    ##  8 Grainger       114.          19.6 High              3 High 3m           2
    ##  9 Grainger       114.          19.6 High              3 High 3m           3
    ## 10 Grainger       114.          19.6 High             15 High 15m          1
    ## # ... with 59 more rows, and 11 more variables: TransectID <chr>,
    ## #   Richness <dbl>, Abundance <dbl>, Biomass <dbl>, Biomass_kg <dbl>,
    ## #   SlopeAngle <dbl>, PercRock <dbl>, CurrentMin <dbl>, MedianMax <dbl>,
    ## #   meanCurrentSD <dbl>, maxCurrentSD <dbl>
…
    ##                     Value  Std.Error   DF   t-value      p-value
    ## (Intercept)    0.93669306 0.04231252 1627 22.137493 3.903412e-95
    ## TransectDepthB 0.04748066 0.02166287 1627  2.191799 2.853529e-02

    ## # A tibble: 25 x 4
    ##    Model            Subject                Intercept deep_depth
    ##    <chr>            <chr>                      <dbl>      <dbl>
    ##  1 Complete pooling Scalyhead Sculpin          0.937     0.0475
    ##  2 Complete pooling Blackeye Goby              0.937     0.0475
    ##  3 Complete pooling Longfin Sculpin            0.937     0.0475
    ##  4 Complete pooling Northern Clingfish         0.937     0.0475
    ##  5 Complete pooling Padded Sculpin             0.937     0.0475
    ##  6 Complete pooling Pipefish                   0.937     0.0475
    ##  7 Complete pooling Copper Rockfish            0.937     0.0475
    ##  8 Complete pooling Kelp Greenling             0.937     0.0475
    ##  9 Complete pooling Whitespotted Greenling     0.937     0.0475
    ## 10 Complete pooling Sailfin Sculpin            0.937     0.0475
    ## # ... with 15 more rows
…
